evaluation/ble/power/scanning/scanning.CSV

Model,DPO2024B
Firmware Version,1.52

Point Format,Y,
Horizontal Units,S,
Horizontal Scale,0.02,
Sample Interval,1.6e-06,
Filter Frequency,2e+08,
Record Length,125000,
Gating,0.0% to 100.0%,
Probe Attenuation,10,
Vertical Units,V,
Vertical Offset,0,
Vertical Scale,0.5,
Label,,
TIME,CH1,CH1 Peak Detect
5.37861e-01,1.04,1.06
5.37862e-01,1.04,1
5.37864e-01,1.02,1.06
5.37866e-01,1.04,1
5.37867e-01,1.04,1.06
5.37869e-01,1.04,1
5.37870e-01,1.04,1.06
5.37872e-01,1.04,1
5.37874e-01,1.04,1.06
5.37875e-01,1.04,1
5.37877e-01,1.04,1.06
5.37878e-01,1.02,1
5.37880e-01,1.02,1.06
5.37882e-01,1.02,1
5.37883e-01,1.04,1.06
5.37885e-01,1.02,0.98
5.37886e-01,1.02,1.06
5.37888e-01,1.02,1
5.37890e-01,1.02,1.06
5.37891e-01,1.02,1
5.37893e-01,1.02,1.06
5.37894e-01,1.02,1
5.37896e-01,1.02,1.06
5.37898e-01,1.02,0.98
5.37899e-01,1.02,1.06
5.37901e-01,1.02,0.98
5.37902e-01,1.02,1.06
5.37904e-01,1.02,1
5.37906e-01,1.02,1.06
5.37907e-01,1.02,1
5.37909e-01,1.02,1.06
5.37910e-01,1.04,1
5.37912e-01,1.02,1.06
5.37914e-01,1.06,1
5.37915e-01,1.04,1.06
5.37917e-01,1.04,1
5.37918e-01,1.04,1.06
5.37920e-01,1.04,1
5.37922e-01,1.02,1.06
5.37923e-01,1.02,1
5.37925e-01,1.04,1.06
5.37926e-01,1.02,1
5.37928e-01,1.02,1.06
5.37930e-01,1.02,1
5.37931e-01,1.02,1.06
5.37933e-01,1.02,1
5.37934e-01,1.02,1.06
5.37936e-01,1.02,1
5.37938e-01,1.04,1.06
5.37939e-01,1.02,1
5.37941e-01,1.04,1.06
5.37942e-01,1.04,1
5.37944e-01,1.02,1.06
5.37946e-01,1.04,1
5.37947e-01,1.02,1.06
5.37949e-01,1.04,1
5.37950e-01,1.02,1.06
5.37952e-01,1.02,1
5.37954e-01,1.04,1.06
5.37955e-01,1.02,1
5.37957e-01,1.02,1.06
5.37958e-01,1.04,1
5.37960e-01,1.04,1.06
5.37962e-01,1.02,1
5.37963e-01,1.02,1.06
5.37965e-01,1.04,1
5.37966e-01,1.04,1.06
5.37968e-01,1.02,1
5.37970e-01,1.04,1.06
5.37971e-01,1.02,1
5.37973e-01,1.04,1.06
5.37974e-01,1,1
5.37976e-01,1.02,1.06
5.37978e-01,1.02,1
5.37979e-01,1.02,1.06
5.37981e-01,1.02,0.98
5.37982e-01,1.02,1.04
5.37984e-01,1.02,0.98
5.37986e-01,1.02,1.06
5.37987e-01,1.02,1
5.37989e-01,1.02,1.06
5.37990e-01,1.02,0.98
5.37992e-01,1.04,1.06
5.37994e-01,1.04,1
5.37995e-01,1.04,1.06
5.37997e-01,1.02,1
5.37998e-01,1.02,1.06
5.38000e-01,1.02,1
5.38002e-01,1.02,1.06
5.38003e-01,1.02,1
5.38005e-01,1.04,1.06
5.38006e-01,1.02,0.98
5.38008e-01,1.04,1.06
5.38010e-01,1.02,1
5.38011e-01,1.02,1.06
5.38013e-01,1.02,1
5.38014e-01,1.02,1.06
5.38016e-01,1.02,1
5.38018e-01,1.02,1.06
5.38019e-01,1.04,1
5.38021e-01,1.02,1.06
5.38022e-01,1.02,1
5.38024e-01,1.02,1.06
5.38026e-01,1.02,1
5.38027e-01,0.98,1.06
5.38029e-01,1,0.98
5.38030e-01,1.02,1.06
5.38032e-01,1.02,0.98
5.38034e-01,1.04,1.06
5.38035e-01,1.04,0.98
5.38037e-01,1.02,1.06
5.38038e-01,1.02,0.98
5.38040e-01,1.02,1.06
5.38042e-01,1.04,1
5.38043e-01,1.04,1.06
5.38045e-01,1.04,1
5.38046e-01,1.04,1.06
5.38048e-01,1.02,1
5.38050e-01,1.04,1.06
5.38051e-01,1.02,1
5.38053e-01,1.02,1.06
5.38054e-01,1.02,1
5.38056e-01,1.02,1.06
5.38058e-01,1.02,1
5.38059e-01,1.04,1.06
5.38061e-01,1.02,1
5.38062e-01,1.02,1.06
5.38064e-01,1.04,1
5.38066e-01,1.06,1.06
5.38067e-01,1.04,1
5.38069e-01,1.02,1.06
5.38070e-01,1.02,1
5.38072e-01,1.04,1.06
5.38074e-01,1.04,1
5.38075e-01,1.04,1.06
5.38077e-01,1.02,1
5.38078e-01,1.02,1.06
5.38080e-01,1.02,0.98
5.38082e-01,1.04,1.06
5.38083e-01,1.02,1
5.38085e-01,1.04,1.06
5.38086e-01,1.02,1
5.38088e-01,1.02,1.06
5.38090e-01,1.04,1
5.38091e-01,1.02,1.06
5.38093e-01,1.02,1
5.38094e-01,1.02,1.06
5.38096e-01,1.04,1
5.38098e-01,1.04,1.06
5.38099e-01,1.04,1
5.38101e-01,1.04,1.06
5.38102e-01,1.06,1
5.38104e-01,1.04,1.06
5.38106e-01,1.04,1
5.38107e-01,1.02,1.06
5.38109e-01,1.02,1
5.38110e-01,1.04,1.06
5.38112e-01,1.02,1
5.38114e-01,1.04,1.06
5.38115e-01,1.02,1
5.38117e-01,1.04,1.06
5.38118e-01,1.02,1
5.38120e-01,1.02,1.06
5.38122e-01,1.04,1
5.38123e-01,1.02,1.06
5.38125e-01,1.02,1
5.38126e-01,1.02,1.06
5.38128e-01,1.04,1
5.38130e-01,1.04,1.06
5.38131e-01,1.04,1
5.38133e-01,1.04,1.08
5.38134e-01,1.02,1
5.38136e-01,1.04,1.06
5.38138e-01,1.02,1
5.38139e-01,1.02,1.06
5.38141e-01,1.04,1
5.38142e-01,1.04,1.06
5.38144e-01,1.04,1
5.38146e-01,1.02,1.06
5.38147e-01,1.06,1.02
5.38149e-01,1.06,1.08
5.38150e-01,1.04,1.02
5.38152e-01,1.02,1.08
5.38154e-01,1.04,1
5.38155e-01,1.06,1.08
5.38157e-01,1.04,1
5.38158e-01,1.04,1.08
5.38160e-01,1.04,1
5.38162e-01,1.04,1.08
5.38163e-01,1.02,1
5.38165e-01,1.02,1.06
5.38166e-01,1.02,1
5.38168e-01,1.04,1.06
5.38170e-01,1.04,1
5.38171e-01,1.04,1.06
5.38173e-01,1.04,1
5.38174e-01,1.04,1.06
5.38176e-01,1.04,1
5.38178e-01,1.02,1.06
5.38179e-01,1.02,1
5.38181e-01,1.02,1.06
5.38182e-01,1.04,1
5.38184e-01,1.02,1.06
5.38186e-01,1.04,1
5.38187e-01,1.06,1.06
5.38189e-01,1.04,1
5.38190e-01,1.02,1.06
5.38192e-01,1.06,1
5.38194e-01,1.06,1.06
5.38195e-01,1.06,1.02
5.38197e-01,1.04,1.08
5.38198e-01,1.06,1.02
5.38200e-01,1.04,1.08
5.38202e-01,1.02,1.02
5.38203e-01,1.04,1.08
5.38205e-01,1.04,1
5.38206e-01,1.02,1.08
5.38208e-01,1.04,1
5.38210e-01,1.04,1.06
5.38211e-01,1.04,1
5.38213e-01,1.04,1.08
5.38214e-01,1.04,1
5.38216e-01,1.04,1.06
5.38218e-01,1.04,1
5.38219e-01,1.06,1.06
5.38221e-01,1.04,1
5.38222e-01,1.04,1.06
5.38224e-01,1.04,1.02
5.38226e-01,1.06,1.08
5.38227e-01,1.04,1
5.38229e-01,1.04,1.08
5.38230e-01,1.04,1.02
5.38232e-01,1.02,1.08
5.38234e-01,1.02,1
5.38235e-01,1.06,1.06
5.38237e-01,1.04,1.02
5.38238e-01,1.04,1.08
5.38240e-01,1.04,1.02
5.38242e-01,1.04,1.06
5.38243e-01,1.04,1
5.38245e-01,1.04,1.08
5.38246e-01,1.06,1.02
5.38248e-01,1.04,1.08
5.38250e-01,1.08,1.02
5.38251e-01,1.06,1.08
5.38253e-01,1.04,1.02
5.38254e-01,1.04,1.08
5.38256e-01,1.04,1
5.38258e-01,1.02,1.08
5.38259e-01,1.04,1
5.38261e-01,1,1.06
5.38262e-01,1.04,1
5.38264e-01,1.04,1.06
5.38266e-01,1.04,1
5.38267e-01,1.04,1.06
5.38269e-01,1.02,1
5.38270e-01,1.04,1.06
5.38272e-01,1.04,1
5.38274e-01,1.04,1.06
5.38275e-01,1.04,1.02
5.38277e-01,1.04,1.08
5.38278e-01,1.06,1.02
5.38280e-01,1.04,1.08
5.38282e-01,1.04,1.02
5.38283e-01,1.04,1.08
5.38285e-01,1.02,1.02
5.38286e-01,1.06,1.08
5.38288e-01,1.04,1.02
5.38290e-01,1.04,1.08
5.38291e-01,1.04,1
5.38293e-01,1.04,1.08
5.38294e-01,1.04,1
5.38296e-01,1.04,1.06
5.38298e-01,1.06,1
5.38299e-01,1.04,1.06
5.38301e-01,1.04,1.02
5.38302e-01,1.06,1.08
5.38304e-01,1.04,1
5.38306e-01,1.02,1.08
5.38307e-01,1.04,1
5.38309e-01,1.02,1.06
5.38310e-01,1.02,1
5.38312e-01,1.02,1.06
5.38314e-01,1.02,1
5.38315e-01,1,1.06
5.38317e-01,1.04,1
5.38318e-01,1.04,1.06
5.38320e-01,1.04,1
5.38322e-01,1.02,1.06
5.38323e-01,1.04,1
5.38325e-01,1.04,1.06
5.38326e-01,1.06,1
5.38328e-01,1.04,1.08
5.38330e-01,1.06,1
5.38331e-01,1.08,1.08
5.38333e-01,1.04,1.02
5.38334e-01,1.08,1.08
5.38336e-01,1.04,1.02
5.38338e-01,1.04,1.08
5.38339e-01,1.04,1.02
5.38341e-01,1.04,1.08
5.38342e-01,1.04,1
5.38344e-01,1.04,1.06
5.38346e-01,1.02,1
5.38347e-01,1.02,1.06
5.38349e-01,1.04,1
5.38350e-01,1.04,1.06
5.38352e-01,1.04,1
5.38354e-01,1.04,1.06
5.38355e-01,1.02,1
5.38357e-01,1.02,1.06
5.38358e-01,1.04,1
5.38360e-01,1.04,1.06
5.38362e-01,1.02,1
5.38363e-01,1.02,1.06
5.38365e-01,1.02,1
5.38366e-01,1.04,1.06
5.38368e-01,1.04,1
5.38370e-01,1.02,1.06
5.38371e-01,1.02,1
5.38373e-01,1.04,1.06
5.38374e-01,1.04,1
5.38376e-01,1.02,1.06
5.38378e-01,1.04,1
5.38379e-01,1.02,1.06
5.38381e-01,1.04,1
5.38382e-01,1.04,1.06
5.38384e-01,1.04,1.02
5.38386e-01,1.04,1.08
5.38387e-01,1.02,1.02
5.38389e-01,1.06,1.08
5.38390e-01,1.02,1.02
5.38392e-01,1.04,1.08
5.38394e-01,1.04,1.02
5.38395e-01,1.02,1.06
5.38397e-01,1.04,1
5.38398e-01,1.02,1.06
5.38400e-01,1.02,1
5.38402e-01,1.02,1.06
5.38403e-01,1.04,1
5.38405e-01,1.04,1.06
5.38406e-01,1.04,1
5.38408e-01,1.06,1.06
5.38410e-01,1.04,1
5.38411e-01,1.04,1.06
5.38413e-01,1.02,1
5.38414e-01,1.04,1.06
5.38416e-01,1.02,1
5.38418e-01,1.04,1.06
5.38419e-01,1.04,1
5.38421e-01,1.04,1.08
5.38422e-01,1.02,1
5.38424e-01,1.04,1.08
5.38426e-01,1.04,1
5.38427e-01,1.04,1.06
5.38429e-01,1.04,1.02
5.38430e-01,1.06,1.06
5.38432e-01,1.04,1
5.38434e-01,1.06,1.06
5.38435e-01,1.04,1.02
5.38437e-01,1.06,1.08
5.38438e-01,1.04,1.02
5.38440e-01,1.04,1.08
5.38442e-01,1.04,1.02
5.38443e-01,1.02,1.06
5.38445e-01,1.04,1.02
5.38446e-01,1.02,1.06
5.38448e-01,1.02,1
5.38450e-01,1.02,1.06
5.38451e-01,1.02,1
5.38453e-01,1.02,1.06
5.38454e-01,1.02,1
5.38456e-01,1.02,1.06
5.38458e-01,1.02,1
5.38459e-01,1.04,1.06
5.38461e-01,1.04,1
5.38462e-01,1.04,1.08
5.38464e-01,1.02,1
5.38466e-01,1.04,1.08
5.38467e-01,1.04,1.02
5.38469e-01,1.04,1.08
5.38470e-01,1.04,1.02
5.38472e-01,1.04,1.08
5.38474e-01,1.04,1
5.38475e-01,1.02,1.06
5.38477e-01,1.04,1
5.38478e-01,1.02,1.06
5.38480e-01,1.02,1
5.38482e-01,1.02,1.06
5.38483e-01,1.02,1
5.38485e-01,1.04,1.06
5.38486e-01,1.04,1
5.38488e-01,1.02,1.06
5.38490e-01,1.04,1
5.38491e-01,1.02,1.06
5.38493e-01,1.04,1
5.38494e-01,1.02,1.08
5.38496e-01,1.02,1
5.38498e-01,1.02,1.06
5.38499e-01,1.02,1
5.38501e-01,1.04,1.06
5.38502e-01,1.02,1
5.38504e-01,1.02,1.06
5.38506e-01,1.02,0.98
5.38507e-01,1,1.04
5.38509e-01,1.02,1
5.38510e-01,1.04,1.06
5.38512e-01,1.04,1
5.38514e-01,1.04,1.06
5.38515e-01,1.04,1
5.38517e-01,1.02,1.06
5.38518e-01,1.04,1.02
5.38520e-01,1.06,1.08
5.38522e-01,1.04,1.02
5.38523e-01,1.04,1.08
5.38525e-01,1.02,1
5.38526e-01,1.04,1.08
5.38528e-01,1.02,1
5.38530e-01,1.02,1.06
5.38531e-01,1.04,1
5.38533e-01,1.02,1.06
5.38534e-01,1.04,1
5.38536e-01,1.02,1.06
5.38538e-01,1,1
5.38539e-01,1.02,1.06
5.38541e-01,1.02,1
5.38542e-01,1.02,1.06
5.38544e-01,1,1
5.38546e-01,1.02,1.06
5.38547e-01,1.04,1
5.38549e-01,1.02,1.06
5.38550e-01,1.02,1
5.38552e-01,1.02,1.06
5.38554e-01,1,1
5.38555e-01,1.04,1.06
5.38557e-01,1.02,1
5.38558e-01,1.02,1.06
5.38560e-01,1.02,1
5.38562e-01,1.02,1.06
5.38563e-01,1.02,1
5.38565e-01,1.04,1.06
5.38566e-01,1.04,1
5.38568e-01,1.04,1.06
5.38570e-01,1.04,1
5.38571e-01,1.04,1.06
5.38573e-01,1.04,1
5.38574e-01,1.04,1.06
5.38576e-01,1.04,1.02
5.38578e-01,1.04,1.08
5.38579e-01,1.04,1
5.38581e-01,1.02,1.08
5.38582e-01,1.02,1
5.38584e-01,1.02,1.06
5.38586e-01,1.02,1
5.38587e-01,1.02,1.06
5.38589e-01,1,0.98
5.38590e-01,1.02,1.06
5.38592e-01,1.02,0.98
5.38594e-01,1.02,1.06
5.38595e-01,1.02,0.98
5.38597e-01,1.02,1.06
5.38598e-01,1.04,0.98
5.38600e-01,1.04,1.06
5.38602e-01,1.04,1
5.38603e-01,1.04,1.06
5.38605e-01,1.04,1
5.38606e-01,1.04,1.06
5.38608e-01,1.02,1
5.38610e-01,1.02,1.06
5.38611e-01,1.04,1
5.38613e-01,1.02,1.06
5.38614e-01,1.04,1
5.38616e-01,1.02,1.06
5.38618e-01,1.04,1
5.38619e-01,1.04,1.08
5.38621e-01,1.04,1
5.38622e-01,1.04,1.06
5.38624e-01,1.04,1
5.38626e-01,1.04,1.06
5.38627e-01,1.04,1.02
5.38629e-01,1.02,1.06
5.38630e-01,1.04,1
5.38632e-01,1.02,1.06
5.38634e-01,1.02,1
5.38635e-01,1.02,1.06
5.38637e-01,1,1
5.38638e-01,1.02,1.06
5.38640e-01,1.02,0.98
5.38642e-01,1.02,1.04
5.38643e-01,1.04,0.98
5.38645e-01,1.02,1.06
5.38646e-01,1.04,0.98
5.38648e-01,1.02,1.06
5.38650e-01,1.02,0.98
5.38651e-01,1.02,1.06
5.38653e-01,1.04,1
5.38654e-01,1.02,1.06
5.38656e-01,1.02,1
5.38658e-01,1.04,1.06
5.38659e-01,1.04,1
5.38661e-01,1.02,1.06
5.38662e-01,1.02,1
5.38664e-01,1,1.06
5.38666e-01,1,1
5.38667e-01,1.02,1.06
5.38669e-01,1,1
5.38670e-01,1.02,1.04
5.38672e-01,1.02,1
5.38674e-01,1.02,1.06
5.38675e-01,1.02,1
5.38677e-01,1.02,1.06
5.38678e-01,1.04,1
5.38680e-01,1.02,1.06
5.38682e-01,1.02,1
5.38683e-01,1.02,1.06
5.38685e-01,1.02,0.98
5.38686e-01,1.02,1.06
5.38688e-01,1.02,0.98
5.38690e-01,1,1.06
5.38691e-01,1,0.98
5.38693e-01,1.02,1.04
5.38694e-01,1.02,0.98
5.38696e-01,1,1.04
5.38698e-01,1.02,0.98
5.38699e-01,1.02,1.06
5.38701e-01,1.04,1
5.38702e-01,1.02,1.06
5.38704e-01,1.02,1
5.38706e-01,1.04,1.06
5.38707e-01,1.04,1
5.38709e-01,1.04,1.08
5.38710e-01,1.06,1.02
5.38712e-01,1.06,1.08
5.38714e-01,1.06,1.02
5.38715e-01,1.06,1.08
5.38717e-01,1.06,1.04
5.38718e-01,1.06,1.08
5.38720e-01,1.04,1.04
5.38722e-01,1.08,1.1
5.38723e-01,1.04,1.04
5.38725e-01,1.08,1.1
5.38726e-01,1.08,1.04
5.38728e-01,1.06,1.1
5.38730e-01,1.1,1.04
5.38731e-01,1.08,1.1
5.38733e-01,1.1,1.06
5.38734e-01,1.1,1.12
5.38736e-01,1.1,1.06
5.38738e-01,1.1,1.12
5.38739e-01,1.1,1.08
5.38741e-01,1.12,1.14
5.38742e-01,1.1,1.08
5.38744e-01,1.12,1.14
5.38746e-01,1.12,1.08
5.38747e-01,1.12,1.14
5.38749e-01,1.14,1.1
5.38750e-01,1.12,1.16
5.38752e-01,1.14,1.1
5.38754e-01,1.14,1.16
5.38755e-01,1.14,1.1
5.38757e-01,1.16,1.18
5.38758e-01,1.16,1.12
5.38760e-01,1.16,1.18
5.38762e-01,1.16,1.12
5.38763e-01,1.16,1.2
5.38765e-01,1.16,1.14
5.38766e-01,1.16,1.2
5.38768e-01,1.2,1.14
5.38770e-01,1.16,1.2
5.38771e-01,1.16,1.14
5.38773e-01,1.16,1.22
5.38774e-01,1.18,1.14
5.38776e-01,1.18,1.2
5.38778e-01,1.18,1.14
5.38779e-01,1.18,1.2
5.38781e-01,1.2,1.16
5.38782e-01,1.18,1.22
5.38784e-01,1.2,1.16
5.38786e-01,1.2,1.22
5.38787e-01,1.2,1.16
5.38789e-01,1.22,1.24
5.38790e-01,1.22,1.18
5.38792e-01,1.22,1.24
5.38794e-01,1.2,1.18
5.38795e-01,1.22,1.24
5.38797e-01,1.2,1.18
5.38798e-01,1.22,1.26
5.38800e-01,1.24,1.18
5.38802e-01,1.22,1.26
5.38803e-01,1.24,1.2
5.38805e-01,1.24,1.26
5.38806e-01,1.26,1.2
5.38808e-01,1.26,1.28
5.38810e-01,1.26,1.2
5.38811e-01,1.24,1.28
5.38813e-01,1.24,1.22
5.38814e-01,1.26,1.28
5.38816e-01,1.24,1.22
5.38818e-01,1.26,1.28
5.38819e-01,1.26,1.22
5.38821e-01,1.24,1.28
5.38822e-01,1.24,1.22
5.38824e-01,1.24,1.28
5.38826e-01,1.26,1.22
5.38827e-01,1.26,1.28
5.38829e-01,1.24,1.22
5.38830e-01,1.26,1.28
5.38832e-01,1.26,1.22
5.38834e-01,1.26,1.3
5.38835e-01,1.28,1.22
5.38837e-01,1.28,1.3
5.38838e-01,1.28,1.24
5.38840e-01,1.3,1.3
5.38842e-01,1.26,1.24
5.38843e-01,1.28,1.3
5.38845e-01,1.28,1.24
5.38846e-01,1.28,1.32
5.38848e-01,1.28,1.24
5.38850e-01,1.28,1.32
5.38851e-01,1.28,1.24
5.38853e-01,1.28,1.32
5.38854e-01,1.3,1.24
5.38856e-01,1.32,1.32
5.38858e-01,1.32,1.26
5.38859e-01,1.32,1.32
5.38861e-01,1.3,1.26
5.38862e-01,1.3,1.34
5.38864e-01,1.32,1.26
5.38866e-01,1.32,1.34
5.38867e-01,1.3,1.28
5.38869e-01,1.3,1.34
5.38870e-01,1.28,1.28
5.38872e-01,1.28,1.32
5.38874e-01,1.28,1.26
5.38875e-01,1.3,1.32
5.38877e-01,1.3,1.26
5.38878e-01,1.3,1.32
5.38880e-01,1.32,1.26
5.38882e-01,1.3,1.34
5.38883e-01,1.3,1.26
5.38885e-01,1.32,1.34
5.38886e-01,1.3,1.28
5.38888e-01,1.34,1.34
5.38890e-01,1.3,1.28
5.38891e-01,1.32,1.36
5.38893e-01,1.32,1.28
5.38894e-01,1.32,1.36
5.38896e-01,1.34,1.28
5.38898e-01,1.32,1.34
5.38899e-01,1.3,1.28
5.38901e-01,1.32,1.36
5.38902e-01,1.34,1.3
5.38904e-01,1.34,1.36
5.38906e-01,1.34,1.3
5.38907e-01,1.34,1.36
5.38909e-01,1.34,1.3
5.38910e-01,1.32,1.36
5.38912e-01,1.34,1.3
5.38914e-01,1.32,1.38
5.38915e-01,1.34,1.3
5.38917e-01,1.34,1.36
5.38918e-01,1.34,1.3
5.38920e-01,1.32,1.36
5.38922e-01,1.32,1.3
5.38923e-01,1.3,1.36
5.38925e-01,1.32,1.28
5.38926e-01,1.34,1.36
5.38928e-01,1.32,1.3
5.38930e-01,1.34,1.36
5.38931e-01,1.34,1.3
5.38933e-01,1.36,1.38
5.38934e-01,1.34,1.32
5.38936e-01,1.38,1.38
5.38938e-01,1.36,1.32
5.38939e-01,1.36,1.38
5.38941e-01,1.34,1.32
5.38942e-01,1.36,1.38
5.38944e-01,1.36,1.32
5.38946e-01,1.36,1.38
5.38947e-01,1.34,1.32
5.38949e-01,1.32,1.38
5.38950e-01,1.36,1.32
5.38952e-01,1.36,1.38
5.38954e-01,1.36,1.32
5.38955e-01,1.36,1.38
5.38957e-01,1.36,1.32
5.38958e-01,1.36,1.38
5.38960e-01,1.36,1.32
5.38962e-01,1.36,1.38
5.38963e-01,1.36,1.32
5.38965e-01,1.36,1.38
5.38966e-01,1.36,1.32
5.38968e-01,1.34,1.38
5.38970e-01,1.34,1.32
5.38971e-01,1.36,1.38
5.38973e-01,1.34,1.32
5.38974e-01,1.36,1.38
5.38976e-01,1.34,1.3
5.38978e-01,1.36,1.38
5.38979e-01,1.36,1.32
5.38981e-01,1.38,1.38
5.38982e-01,1.38,1.32
5.38984e-01,1.38,1.4
5.38986e-01,1.38,1.34
5.38987e-01,1.38,1.4
5.38989e-01,1.38,1.34
5.38990e-01,1.38,1.4
5.38992e-01,1.38,1.34
5.38994e-01,1.38,1.4
5.38995e-01,1.38,1.34
5.38997e-01,1.36,1.4
5.38998e-01,1.38,1.34
5.39000e-01,1.36,1.4
5.39002e-01,1.36,1.34
5.39003e-01,1.38,1.4
5.39005e-01,1.38,1.34
5.39006e-01,1.36,1.4
5.39008e-01,1.38,1.34
5.39010e-01,1.36,1.4
5.39011e-01,1.36,1.34
5.39013e-01,1.38,1.4
5.39014e-01,1.38,1.34
5.39016e-01,1.38,1.4
5.39018e-01,1.36,1.34
5.39019e-01,1.38,1.4
5.39021e-01,1.38,1.32
5.39022e-01,1.36,1.4
5.39024e-01,1.36,1.32
5.39026e-01,1.38,1.4
5.39027e-01,1.38,1.34
5.39029e-01,1.36,1.4
5.39030e-01,1.38,1.34
5.39032e-01,1.38,1.4
5.39034e-01,1.38,1.34
5.39035e-01,1.38,1.42
5.39037e-01,1.38,1.34
5.39038e-01,1.38,1.42
5.39040e-01,1.38,1.36
5.39042e-01,1.38,1.42
5.39043e-01,1.38,1.34
5.39045e-01,1.38,1.42
5.39046e-01,1.4,1.34
5.39048e-01,1.4,1.42
5.39050e-01,1.36,1.34
5.39051e-01,1.38,1.42
5.39053e-01,1.4,1.34
5.39054e-01,1.4,1.42
5.39056e-01,1.38,1.36
5.39058e-01,1.4,1.42
5.39059e-01,1.38,1.36
5.39061e-01,1.38,1.42
5.39062e-01,1.38,1.34
5.39064e-01,1.4,1.42
5.39066e-01,1.4,1.34
5.39067e-01,1.38,1.42
5.39069e-01,1.38,1.36
5.39070e-01,1.38,1.42
5.39072e-01,1.4,1.36
5.39074e-01,1.38,1.42
5.39075e-01,1.4,1.34
5.39077e-01,1.38,1.42
5.39078e-01,1.38,1.36
5.39080e-01,1.38,1.42
5.39082e-01,1.38,1.36
5.39083e-01,1.4,1.42
5.39085e-01,1.4,1.36
5.39086e-01,1.4,1.44
5.39088e-01,1.42,1.36
5.39090e-01,1.4,1.44
5.39091e-01,1.4,1.36
5.39093e-01,1.4,1.44
5.39094e-01,1.4,1.36
5.39096e-01,1.38,1.42
5.39098e-01,1.38,1.36
5.39099e-01,1.4,1.42
5.39101e-01,1.38,1.36
5.39102e-01,1.4,1.42
5.39104e-01,1.4,1.36
5.39106e-01,1.4,1.42
5.39107e-01,1.38,1.36
5.39109e-01,1.4,1.42
5.39110e-01,1.4,1.36
5.39112e-01,1.38,1.42
5.39114e-01,1.38,1.36
5.39115e-01,1.38,1.42
5.39117e-01,1.4,1.36
5.39118e-01,1.38,1.42
5.39120e-01,1.38,1.36
5.39122e-01,1.4,1.42
5.39123e-01,1.4,1.36
5.39125e-01,1.38,1.42
5.39126e-01,1.4,1.36
5.39128e-01,1.4,1.42
5.39130e-01,1.4,1.36
5.39131e-01,1.4,1.42
5.39133e-01,1.42,1.36
5.39134e-01,1.4,1.44
5.39136e-01,1.42,1.36
5.39138e-01,1.4,1.44
5.39139e-01,1.4,1.38
5.39141e-01,1.4,1.44
5.39142e-01,1.42,1.38
5.39144e-01,1.38,1.44
5.39146e-01,1.4,1.38
5.39147e-01,1.38,1.44
5.39149e-01,1.4,1.36
5.39150e-01,1.38,1.42
5.39152e-01,1.4,1.36
5.39154e-01,1.4,1.42
5.39155e-01,1.4,1.36
5.39157e-01,1.4,1.42
5.39158e-01,1.4,1.36
5.39160e-01,1.42,1.44
5.39162e-01,1.42,1.36
5.39163e-01,1.4,1.44
5.39165e-01,1.38,1.36
5.39166e-01,1.4,1.44
5.39168e-01,1.4,1.38
5.39170e-01,1.4,1.44
5.39171e-01,1.4,1.36
5.39173e-01,1.4,1.44
5.39174e-01,1.4,1.36
5.39176e-01,1.4,1.44
5.39178e-01,1.4,1.36
5.39179e-01,1.4,1.44
5.39181e-01,1.42,1.38
5.39182e-01,1.42,1.44
5.39184e-01,1.42,1.38
5.39186e-01,1.42,1.44
5.39187e-01,1.42,1.38
5.39189e-01,1.42,1.44
5.39190e-01,1.42,1.38
5.39192e-01,1.4,1.44
5.39194e-01,1.4,1.38
5.39195e-01,1.42,1.44
5.39197e-01,1.4,1.36
5.39198e-01,1.4,1.44
5.39200e-01,1.38,1.36
5.39202e-01,1.4,1.44
5.39203e-01,1.38,1.36
5.39205e-01,1.4,1.42
5.39206e-01,1.38,1.36
5.39208e-01,1.38,1.42
5.39210e-01,1.4,1.36
5.39211e-01,1.4,1.42
5.39213e-01,1.4,1.36
5.39214e-01,1.4,1.42
5.39216e-01,1.4,1.38
5.39218e-01,1.4,1.44
5.39219e-01,1.4,1.36
5.39221e-01,1.42,1.42
5.39222e-01,1.42,1.36
5.39224e-01,1.38,1.44
5.39226e-01,1.4,1.36
5.39227e-01,1.4,1.44
5.39229e-01,1.4,1.36
5.39230e-01,1.4,1.42
5.39232e-01,1.38,1.36
5.39234e-01,1.42,1.44
5.39235e-01,1.42,1.38
5.39237e-01,1.4,1.44
5.39238e-01,1.4,1.38
5.39240e-01,1.4,1.44
5.39242e-01,1.4,1.36
5.39243e-01,1.4,1.44
5.39245e-01,1.4,1.38
5.39246e-01,1.4,1.44
5.39248e-01,1.4,1.36
5.39250e-01,1.38,1.44
5.39251e-01,1.38,1.36
5.39253e-01,1.38,1.42
5.39254e-01,1.38,1.34
5.39256e-01,1.4,1.42
5.39258e-01,1.42,1.36
5.39259e-01,1.4,1.42
5.39261e-01,1.4,1.36
5.39262e-01,1.42,1.44
5.39264e-01,1.4,1.38
5.39266e-01,1.42,1.44
5.39267e-01,1.4,1.38
5.39269e-01,1.4,1.44
5.39270e-01,1.42,1.38
5.39272e-01,1.4,1.44
5.39274e-01,1.4,1.36
5.39275e-01,1.4,1.44
5.39277e-01,1.42,1.36
5.39278e-01,1.42,1.44
5.39280e-01,1.42,1.36
5.39282e-01,1.4,1.44
5.39283e-01,1.4,1.38
5.39285e-01,1.4,1.44
5.39286e-01,1.42,1.38
5.39288e-01,1.4,1.44
5.39290e-01,1.42,1.38
5.39291e-01,1.42,1.44
5.39293e-01,1.38,1.38
5.39294e-01,1.4,1.44
5.39296e-01,1.4,1.36
5.39298e-01,1.4,1.44
5.39299e-01,1.42,1.36
5.39301e-01,1.4,1.42
5.39302e-01,1.4,1.36
5.39304e-01,1.4,1.42
5.39306e-01,1.4,1.36
5.39307e-01,1.42,1.42
5.39309e-01,1.42,1.36
5.39310e-01,1.4,1.44
5.39312e-01,1.4,1.38
5.39314e-01,1.44,1.44
5.39315e-01,1.42,1.38
5.39317e-01,1.4,1.44
5.39318e-01,1.42,1.38
5.39320e-01,1.42,1.46
5.39322e-01,1.44,1.38
5.39323e-01,1.4,1.44
5.39325e-01,1.38,1.38
5.39326e-01,1.42,1.44
5.39328e-01,1.4,1.36
5.39330e-01,1.42,1.44
5.39331e-01,1.42,1.36
5.39333e-01,1.4,1.44
5.39334e-01,1.4,1.38
5.39336e-01,1.42,1.44
5.39338e-01,1.42,1.38
5.39339e-01,1.4,1.44
5.39341e-01,1.4,1.38
5.39342e-01,1.4,1.44
5.39344e-01,1.4,1.38
5.39346e-01,1.4,1.44
5.39347e-01,1.4,1.38
5.39349e-01,1.38,1.44
5.39350e-01,1.38,1.36
5.39352e-01,1.4,1.42
